…
## Tidy text

*Structure text into one word per row*

### Tokenise

Convert text into tokens (e.g. characters, words, n-grams, and tweets)

``` r
tidy_text <- raw_text %>% 
  unnest_tokens(output = word, input = text) 
tidy_text
```

    ## # A tibble: 111,288 x 4
    ##    cantica canto  line word   
    ##    <chr>   <dbl> <dbl> <chr>  
    ##  1 Inferno     1     1 midway 
    ##  2 Inferno     1     1 upon   
    ##  3 Inferno     1     1 the    
    ##  4 Inferno     1     1 journey
    ##  5 Inferno     1     1 of     
    ##  6 Inferno     1     1 our    
    ##  7 Inferno     1     1 life   
    ##  8 Inferno     1     2 i      
    ##  9 Inferno     1     2 found  
    ## 10 Inferno     1     2 myself 
    ## # i 111,278 more rows

### Stop words

Remove common words like ‘and’ and ‘the’

``` r
stop_words
```

    ## # A tibble: 1,161 x 2
    ##    word        lexicon
    ##    <chr>       <chr>  
    ##  1 a           SMART  
    ##  2 a's         SMART  
    ##  3 able        SMART  
    ##  4 about       SMART  
    ##  5 above       SMART  
    ##  6 according   SMART  
    ##  7 accordingly SMART  
    ##  8 across      SMART  
    ##  9 actually    SMART  
    ## 10 after       SMART  
    ## # i 1,151 more rows
…
``` r
stop_words <- bind_rows(stop_words, other_stop_words)
tidy_text <- tidy_text %>% 
  anti_join(stop_words, by = "word")
tidy_text
```

    ## # A tibble: 37,187 x 4
    ##    cantica canto  line word           
    ##    <chr>   <dbl> <dbl> <chr>          
    ##  1 Inferno     1     1 midway         
    ##  2 Inferno     1     1 journey        
    ##  3 Inferno     1     1 life           
    ##  4 Inferno     1     2 found          
    ##  5 Inferno     1     2 forest         
    ##  6 Inferno     1     2 dark           
    ##  7 Inferno     1     3 straightforward
    ##  8 Inferno     1     3 pathway        
    ##  9 Inferno     1     3 lost           
    ## 10 Inferno     1     4 ah             
    ## # i 37,177 more rows
…
### Sentiment analysis

``` r
get_sentiments("bing")
```

    ## # A tibble: 6,786 x 2
    ##    word        sentiment
    ##    <chr>       <chr>    
    ##  1 2-faces     negative 
    ##  2 abnormal    negative 
    ##  3 abolish     negative 
    ##  4 abominable  negative 
    ##  5 abominably  negative 
    ##  6 abominate   negative 
    ##  7 abomination negative 
    ##  8 abort       negative 
    ##  9 aborted     negative 
    ## 10 aborts      negative 
    ## # i 6,776 more rows
…
### N-grams

``` r
raw_text %>% 
  unnest_tokens(bigram, text, token = "ngrams", n = 2) %>%
  separate(bigram, c("word1", "word2"), sep =" ") %>% 
  filter(!word1 %in% stop_words$word,
         !word2 %in% stop_words$word) %>%
  unite(bigram, word1, word2, sep = " ") %>% 
  count(cantica, bigram) %>%
  bind_tf_idf(bigram, cantica, n) %>%
  arrange(desc(tf_idf))
```

    ## # A tibble: 6,881 x 6
    ##    cantica    bigram             n      tf   idf  tf_idf
    ##    <chr>      <chr>          <int>   <dbl> <dbl>   <dbl>
    ##  1 Purgatorio sweet father       6 0.00241  1.10 0.00265
    ##  2 Paradiso   holy spirit        5 0.00210  1.10 0.00231
    ##  3 Inferno    mine ears          4 0.00168  1.10 0.00185
    ##  4 Inferno    weary souls        3 0.00126  1.10 0.00139
    ##  5 Paradiso   eternal light      3 0.00126  1.10 0.00139
    ##  6 Paradiso   grace divine       3 0.00126  1.10 0.00139
    ##  7 Paradiso   holy lights        3 0.00126  1.10 0.00139
    ##  8 Paradiso   human species      3 0.00126  1.10 0.00139
    ##  9 Paradiso   living hope        3 0.00126  1.10 0.00139
    ## 10 Paradiso   living justice     3 0.00126  1.10 0.00139
    ## # i 6,871 more rows
…
