…
## Explore data

**manipulating columns**

-   `select()`

``` r
select(df, year, sex, rank)
```

    ## # A tibble: 294,798 × 3
    ##     year sex    rank
    ##    <dbl> <chr> <dbl>
    ##  1  1996 M         1
    ##  2  1996 M         2
    ##  3  1996 M         3
    ##  4  1996 M         4
    ##  5  1996 M         5
    ##  6  1996 M         6
    ##  7  1996 M         7
    ##  8  1996 M         8
    ##  9  1996 M         9
    ## 10  1996 M        10
    ## # … with 294,788 more rows

``` r
select(df, Year = year, Sex = sex, Rank = rank)
```

    ## # A tibble: 294,798 × 3
    ##     Year Sex    Rank
    ##    <dbl> <chr> <dbl>
    ##  1  1996 M         1
    ##  2  1996 M         2
    ##  3  1996 M         3
    ##  4  1996 M         4
    ##  5  1996 M         5
    ##  6  1996 M         6
    ##  7  1996 M         7
    ##  8  1996 M         8
    ##  9  1996 M         9
    ## 10  1996 M        10
    ## # … with 294,788 more rows

``` r
select(df, rank, sex, n)
```

    ## # A tibble: 294,798 × 3
    ##     rank sex       n
    ##    <dbl> <chr> <dbl>
    ##  1     1 M     10779
    ##  2     2 M     10338
    ##  3     3 M      9603
    ##  4     4 M      9385
    ##  5     5 M      7887
    ##  6     6 M      7426
    ##  7     7 M      6496
    ##  8     8 M      6193
    ##  9     9 M      6161
    ## 10    10 M      5802
    ## # … with 294,788 more rows

-   `mutate()`

``` r
mutate(df, name_length = str_length(name))   
```

    ## # A tibble: 294,798 × 6
    ##     year sex   name        n  rank name_length
    ##    <dbl> <chr> <chr>   <dbl> <dbl>       <int>
    ##  1  1996 M     Jack    10779     1           4
    ##  2  1996 M     Daniel  10338     2           6
    ##  3  1996 M     Thomas   9603     3           6
    ##  4  1996 M     James    9385     4           5
    ##  5  1996 M     Joshua   7887     5           6
    ##  6  1996 M     Matthew  7426     6           7
    ##  7  1996 M     Ryan     6496     7           4
    ##  8  1996 M     Joseph   6193     8           6
    ##  9  1996 M     Samuel   6161     9           6
    ## 10  1996 M     Liam     5802    10           4
    ## # … with 294,788 more rows

**manipulating rows**

-   `arrange()`

``` r
arrange(df, n)
```

    ## # A tibble: 294,798 × 5
    ##     year sex   name          n  rank
    ##    <dbl> <chr> <chr>     <dbl> <dbl>
    ##  1  1996 M     Aaman         3  2863
    ##  2  1996 M     Aarif         3  2863
    ##  3  1996 M     Aayush        3  2863
    ##  4  1996 M     Abanoub       3  2863
    ##  5  1996 M     Abass         3  2863
    ##  6  1996 M     Abayomi       3  2863
    ##  7  1996 M     Abdifatah     3  2863
    ##  8  1996 M     Abdimalik     3  2863
    ##  9  1996 M     Abdiwali      3  2863
    ## 10  1996 M     Abdoulie      3  2863
    ## # … with 294,788 more rows

``` r
arrange(df, desc(n))
```

    ## # A tibble: 294,798 × 5
    ##     year sex   name       n  rank
    ##    <dbl> <chr> <chr>  <dbl> <dbl>
    ##  1  1996 M     Jack   10779     1
    ##  2  1996 M     Daniel 10338     2
    ##  3  1997 M     Jack   10145     1
    ##  4  1997 M     James   9853     2
    ##  5  1998 M     Jack    9845     1
    ##  6  1999 M     Jack    9785     1
    ##  7  1998 F     Chloe   9628     1
    ##  8  1996 M     Thomas  9603     3
    ##  9  1997 M     Thomas  9479     3
    ## 10  1998 M     Thomas  9468     2
    ## # … with 294,788 more rows

-   `filter()`

``` r
filter(df, name == "Thor")
```

    ## # A tibble: 23 × 5
    ##     year sex   name      n  rank
    ##    <dbl> <chr> <chr> <dbl> <dbl>
    ##  1  1996 M     Thor      6  1765
    ##  2  1997 M     Thor      5  2022
    ##  3  2000 M     Thor      9  1425
    ##  4  2001 M     Thor      5  2220
    ##  5  2002 M     Thor      6  2005
    ##  6  2003 M     Thor      5  2470
    ##  7  2004 M     Thor      4  3009
    ##  8  2005 M     Thor      7  2174
    ##  9  2006 M     Thor     10  1744
    ## 10  2007 M     Thor      3  4333
    ## # … with 13 more rows

``` r
filter(df, name == "Thor" & year == 2020)
```

    ## # A tibble: 1 × 5
    ##    year sex   name      n  rank
    ##   <dbl> <chr> <chr> <dbl> <dbl>
    ## 1  2020 M     Thor     12  1825

``` r
filter(df, name %in% c("Thor", "Odin"))
```

    ## # A tibble: 48 × 5
    ##     year sex   name      n  rank
    ##    <dbl> <chr> <chr> <dbl> <dbl>
    ##  1  1996 M     Thor      6  1765
    ##  2  1996 M     Odin      5  2020
    ##  3  1997 M     Thor      5  2022
    ##  4  1997 M     Odin      3  2859
    ##  5  1998 M     Odin      3  2901
    ##  6  1999 M     Odin      6  1850
    ##  7  2000 M     Thor      9  1425
    ##  8  2000 M     Odin      5  2142
    ##  9  2001 M     Thor      5  2220
    ## 10  2001 M     Odin      3  3134
    ## # … with 38 more rows

**summarising data**

-   `group_by()`

``` r
df %>% 
  group_by(year) %>% 
  top_n(1, n)
```

    ## # A tibble: 25 × 5
    ## # Groups:   year [25]
    ##     year sex   name      n  rank
    ##    <dbl> <chr> <chr> <dbl> <dbl>
    ##  1  1996 M     Jack  10779     1
    ##  2  1997 M     Jack  10145     1
    ##  3  1998 M     Jack   9845     1
    ##  4  1999 M     Jack   9785     1
    ##  5  2000 M     Jack   9079     1
    ##  6  2001 M     Jack   9000     1
    ##  7  2002 M     Jack   9100     1
    ##  8  2003 M     Jack   9037     1
    ##  9  2004 M     Jack   8380     1
    ## 10  2005 M     Jack   7434     1
    ## # … with 15 more rows

``` r
df %>% 
  group_by(year, sex) %>% 
  top_n(1, n)
```

    ## # A tibble: 50 × 5
    ## # Groups:   year, sex [50]
    ##     year sex   name      n  rank
    ##    <dbl> <chr> <chr> <dbl> <dbl>
    ##  1  1996 M     Jack  10779     1
    ##  2  1997 M     Jack  10145     1
    ##  3  1998 M     Jack   9845     1
    ##  4  1999 M     Jack   9785     1
    ##  5  2000 M     Jack   9079     1
    ##  6  2001 M     Jack   9000     1
    ##  7  2002 M     Jack   9100     1
    ##  8  2003 M     Jack   9037     1
    ##  9  2004 M     Jack   8380     1
    ## 10  2005 M     Jack   7434     1
    ## # … with 40 more rows
…
